  0
SECTION
  2
HEADER
  9
$ACADVER
  1
AC1009
  9
$INSBASE
 10
0.0
 20
0.0
 30
0.0
  9
$EXTMIN
 10
0.0
 20
0.0
 30
0.0
  9
$EXTMAX
 10
0.0
 20
0.0
 30
0.0
  0
ENDSEC
  0
SECTION
  2
TABLES
  0
TABLE
  2
VPORT
 70
0
  0
ENDTAB
  0
TABLE
  2
LTYPE
 70
1
  0
LTYPE
  2
CONTINUOUS
 70
0
  3
Solid line
 72
65
 73
0
 40
0.0
  0
ENDTAB
  0
TABLE
  2
LAYER
 70
1
  0
LAYER
  2
0
 70
64
 62
7
  6
continuous
  0
ENDTAB
  0
TABLE
  2
STYLE
 70
1
  0
STYLE
  2
STANDARD
 70
0
 40
0
 41
1.0
 50
0.0
 71
0
 42
1
 3
ARIAL.TTF
 4

  0
ENDTAB
  0
TABLE
  2
VIEW
 70
0
  0
ENDTAB
  0
ENDSEC
  0
SECTION
  2
BLOCKS
  0
BLOCK
  8
0
  2
FACE059
 70
0
 10
0.0
 20
0.0
 30
0.0
  3
FACE059
  0
LINE
  8
0
 62
0
 10
127.0
 20
-1e-15
 30
0.0
 11
-254.0
 21
-1e-15
 31
0.0
  0
LINE
  8
0
 62
0
 10
-254.0
 20
-1e-15
 30
0.0
 11
-254.0
 21
-76.2
 31
0.0
  0
LINE
  8
0
 62
0
 10
-254.0
 20
-76.2
 30
0.0
 11
127.0
 21
-304.8
 31
0.0
  0
LINE
  8
0
 62
0
 10
127.0
 20
-304.8
 30
0.0
 11
127.0
 21
0.0
 31
0.0
  0
CIRCLE
  8
0
 62
0
 10
88.9
 20
-50.8
 30
0.0
 40
13.969999999999999
  0
CIRCLE
  8
0
 62
0
 10
-152.5815163077209
 20
-30.95625
 30
0.0
 40
5.08
  0
CIRCLE
  8
0
 62
0
 10
-152.5815163077209
 20
-19.05
 30
0.0
 40
5.08
  0
ENDBLK
  0
ENDSEC
  0
SECTION
  2
ENTITIES
  0
INSERT
  2
FACE059
  8
0
 62
0
 10
0.0
 20
0.0
 30
0.0
  0
ENDSEC
  0
EOF
