  0
SECTION
  2
HEADER
  9
$ACADVER
  1
AC1009
  9
$INSBASE
 10
0.0
 20
0.0
 30
0.0
  9
$EXTMIN
 10
0.0
 20
0.0
 30
0.0
  9
$EXTMAX
 10
0.0
 20
0.0
 30
0.0
  0
ENDSEC
  0
SECTION
  2
TABLES
  0
TABLE
  2
VPORT
 70
0
  0
ENDTAB
  0
TABLE
  2
LTYPE
 70
1
  0
LTYPE
  2
CONTINUOUS
 70
0
  3
Solid line
 72
65
 73
0
 40
0.0
  0
ENDTAB
  0
TABLE
  2
LAYER
 70
1
  0
LAYER
  2
0
 70
64
 62
7
  6
continuous
  0
ENDTAB
  0
TABLE
  2
STYLE
 70
1
  0
STYLE
  2
STANDARD
 70
0
 40
0
 41
1.0
 50
0.0
 71
0
 42
1
 3
ARIAL.TTF
 4

  0
ENDTAB
  0
TABLE
  2
VIEW
 70
0
  0
ENDTAB
  0
ENDSEC
  0
SECTION
  2
BLOCKS
  0
BLOCK
  8
0
  2
CHAMFER
 70
0
 10
0.0
 20
0.0
 30
0.0
  3
CHAMFER
  0
LINE
  8
0
 62
0
 10
308.850193659
 20
331.329865
 30
0.0
 11
308.850193659
 21
-329.070135
 31
0.0
  0
LINE
  8
0
 62
0
 10
308.850193659
 20
331.329865
 30
0.0
 11
207.250193659
 21
432.929865
 31
0.0
  0
LINE
  8
0
 62
0
 10
308.850193659
 20
-329.070135
 30
0.0
 11
207.250193659
 21
-430.670135
 31
0.0
  0
LINE
  8
0
 62
0
 10
181.850193659
 20
432.929865
 30
0.0
 11
207.250193659
 21
432.929865
 31
0.0
  0
LINE
  8
0
 62
0
 10
207.250193659
 20
-430.670135
 30
0.0
 11
181.850193659
 21
-430.670135
 31
0.0
  0
LINE
  8
0
 62
0
 10
181.850193659
 20
432.929865
 30
0.0
 11
181.850193659
 21
-430.670135
 31
0.0
  0
POLYLINE
  8
0
 62
0
 70
0
 66
1
 10
0.0
 20
0.0
 30
0.0
  0
VERTEX
  8
0
 10
258.050193659
 20
-119.520135
 30
0.0
  0
VERTEX
  8
0
 10
263.016987924
 20
-119.129239814
 30
0.0
  0
VERTEX
  8
0
 10
267.861483231
 20
-117.966179392
 30
0.0
  0
VERTEX
  8
0
 10
272.464392026
 20
-116.059592143
 30
0.0
  0
VERTEX
  8
0
 10
276.712375419
 20
-113.456424571
 30
0.0
  0
VERTEX
  8
0
 10
280.500833962
 20
-110.220775303
 30
0.0
  0
VERTEX
  8
0
 10
283.736483231
 20
-106.43231676
 30
0.0
  0
VERTEX
  8
0
 10
286.339650802
 20
-102.184333367
 30
0.0
  0
VERTEX
  8
0
 10
288.246238052
 20
-97.5814245714
 30
0.0
  0
VERTEX
  8
0
 10
289.409298473
 20
-92.736929265
 30
0.0
  0
VERTEX
  8
0
 10
289.800193659
 20
-87.770135
 30
0.0
  0
VERTEX
  8
0
 10
289.409298473
 20
-82.803340735
 30
0.0
  0
VERTEX
  8
0
 10
288.246238052
 20
-77.9588454286
 30
0.0
  0
VERTEX
  8
0
 10
286.339650802
 20
-73.3559366333
 30
0.0
  0
VERTEX
  8
0
 10
283.736483231
 20
-69.1079532397
 30
0.0
  0
VERTEX
  8
0
 10
280.500833962
 20
-65.3194946973
 30
0.0
  0
VERTEX
  8
0
 10
276.712375419
 20
-62.0838454286
 30
0.0
  0
VERTEX
  8
0
 10
272.464392026
 20
-59.480677857
 30
0.0
  0
VERTEX
  8
0
 10
267.861483231
 20
-57.5740906076
 30
0.0
  0
VERTEX
  8
0
 10
263.016987924
 20
-56.4110301861
 30
0.0
  0
VERTEX
  8
0
 10
258.050193659
 20
-56.020135
 30
0.0
  0
VERTEX
  8
0
 10
253.083399394
 20
-56.4110301861
 30
0.0
  0
VERTEX
  8
0
 10
248.238904088
 20
-57.5740906076
 30
0.0
  0
VERTEX
  8
0
 10
243.635995292
 20
-59.480677857
 30
0.0
  0
VERTEX
  8
0
 10
239.388011899
 20
-62.0838454286
 30
0.0
  0
VERTEX
  8
0
 10
235.599553357
 20
-65.3194946973
 30
0.0
  0
VERTEX
  8
0
 10
232.363904088
 20
-69.1079532397
 30
0.0
  0
VERTEX
  8
0
 10
229.760736516
 20
-73.3559366333
 30
0.0
  0
VERTEX
  8
0
 10
227.854149267
 20
-77.9588454286
 30
0.0
  0
VERTEX
  8
0
 10
226.691088845
 20
-82.803340735
 30
0.0
  0
VERTEX
  8
0
 10
226.300193659
 20
-87.770135
 30
0.0
  0
VERTEX
  8
0
 10
226.691088845
 20
-92.736929265
 30
0.0
  0
VERTEX
  8
0
 10
227.854149267
 20
-97.5814245714
 30
0.0
  0
VERTEX
  8
0
 10
229.760736516
 20
-102.184333367
 30
0.0
  0
VERTEX
  8
0
 10
232.363904088
 20
-106.43231676
 30
0.0
  0
VERTEX
  8
0
 10
235.599553357
 20
-110.220775303
 30
0.0
  0
VERTEX
  8
0
 10
239.388011899
 20
-113.456424571
 30
0.0
  0
VERTEX
  8
0
 10
243.635995292
 20
-116.059592143
 30
0.0
  0
VERTEX
  8
0
 10
248.238904088
 20
-117.966179392
 30
0.0
  0
VERTEX
  8
0
 10
253.083399394
 20
-119.129239814
 30
0.0
  0
VERTEX
  8
0
 10
258.050193659
 20
-119.520135
 30
0.0
  0
SEQEND
  8
0
  0
POLYLINE
  8
0
 62
0
 70
0
 66
1
 10
0.0
 20
0.0
 30
0.0
  0
VERTEX
  8
0
 10
258.050193659
 20
58.279865
 30
0.0
  0
VERTEX
  8
0
 10
263.016987924
 20
58.6707601861
 30
0.0
  0
VERTEX
  8
0
 10
267.861483231
 20
59.8338206076
 30
0.0
  0
VERTEX
  8
0
 10
272.464392026
 20
61.740407857
 30
0.0
  0
VERTEX
  8
0
 10
276.712375419
 20
64.3435754286
 30
0.0
  0
VERTEX
  8
0
 10
280.500833962
 20
67.5792246973
 30
0.0
  0
VERTEX
  8
0
 10
283.736483231
 20
71.3676832397
 30
0.0
  0
VERTEX
  8
0
 10
286.339650802
 20
75.6156666333
 30
0.0
  0
VERTEX
  8
0
 10
288.246238052
 20
80.2185754286
 30
0.0
  0
VERTEX
  8
0
 10
289.409298473
 20
85.063070735
 30
0.0
  0
VERTEX
  8
0
 10
289.800193659
 20
90.029865
 30
0.0
  0
VERTEX
  8
0
 10
289.409298473
 20
94.996659265
 30
0.0
  0
VERTEX
  8
0
 10
288.246238052
 20
99.8411545714
 30
0.0
  0
VERTEX
  8
0
 10
286.339650802
 20
104.444063367
 30
0.0
  0
VERTEX
  8
0
 10
283.736483231
 20
108.69204676
 30
0.0
  0
VERTEX
  8
0
 10
280.500833962
 20
112.480505303
 30
0.0
  0
VERTEX
  8
0
 10
276.712375419
 20
115.716154571
 30
0.0
  0
VERTEX
  8
0
 10
272.464392026
 20
118.319322143
 30
0.0
  0
VERTEX
  8
0
 10
267.861483231
 20
120.225909392
 30
0.0
  0
VERTEX
  8
0
 10
263.016987924
 20
121.388969814
 30
0.0
  0
VERTEX
  8
0
 10
258.050193659
 20
121.779865
 30
0.0
  0
VERTEX
  8
0
 10
253.083399394
 20
121.388969814
 30
0.0
  0
VERTEX
  8
0
 10
248.238904088
 20
120.225909392
 30
0.0
  0
VERTEX
  8
0
 10
243.635995292
 20
118.319322143
 30
0.0
  0
VERTEX
  8
0
 10
239.388011899
 20
115.716154571
 30
0.0
  0
VERTEX
  8
0
 10
235.599553357
 20
112.480505303
 30
0.0
  0
VERTEX
  8
0
 10
232.363904088
 20
108.69204676
 30
0.0
  0
VERTEX
  8
0
 10
229.760736516
 20
104.444063367
 30
0.0
  0
VERTEX
  8
0
 10
227.854149267
 20
99.8411545714
 30
0.0
  0
VERTEX
  8
0
 10
226.691088845
 20
94.996659265
 30
0.0
  0
VERTEX
  8
0
 10
226.300193659
 20
90.029865
 30
0.0
  0
VERTEX
  8
0
 10
226.691088845
 20
85.063070735
 30
0.0
  0
VERTEX
  8
0
 10
227.854149267
 20
80.2185754286
 30
0.0
  0
VERTEX
  8
0
 10
229.760736516
 20
75.6156666333
 30
0.0
  0
VERTEX
  8
0
 10
232.363904088
 20
71.3676832397
 30
0.0
  0
VERTEX
  8
0
 10
235.599553357
 20
67.5792246973
 30
0.0
  0
VERTEX
  8
0
 10
239.388011899
 20
64.3435754286
 30
0.0
  0
VERTEX
  8
0
 10
243.635995292
 20
61.740407857
 30
0.0
  0
VERTEX
  8
0
 10
248.238904088
 20
59.8338206076
 30
0.0
  0
VERTEX
  8
0
 10
253.083399394
 20
58.6707601861
 30
0.0
  0
VERTEX
  8
0
 10
258.050193659
 20
58.279865
 30
0.0
  0
SEQEND
  8
0
  0
POLYLINE
  8
0
 62
0
 70
0
 66
1
 10
0.0
 20
0.0
 30
0.0
  0
VERTEX
  8
0
 10
258.050193659
 20
-297.320135
 30
0.0
  0
VERTEX
  8
0
 10
263.016987924
 20
-296.929239814
 30
0.0
  0
VERTEX
  8
0
 10
267.861483231
 20
-295.766179392
 30
0.0
  0
VERTEX
  8
0
 10
272.464392026
 20
-293.859592143
 30
0.0
  0
VERTEX
  8
0
 10
276.712375419
 20
-291.256424571
 30
0.0
  0
VERTEX
  8
0
 10
280.500833962
 20
-288.020775303
 30
0.0
  0
VERTEX
  8
0
 10
283.736483231
 20
-284.23231676
 30
0.0
  0
VERTEX
  8
0
 10
286.339650802
 20
-279.984333367
 30
0.0
  0
VERTEX
  8
0
 10
288.246238052
 20
-275.381424571
 30
0.0
  0
VERTEX
  8
0
 10
289.409298473
 20
-270.536929265
 30
0.0
  0
VERTEX
  8
0
 10
289.800193659
 20
-265.570135
 30
0.0
  0
VERTEX
  8
0
 10
289.409298473
 20
-260.603340735
 30
0.0
  0
VERTEX
  8
0
 10
288.246238052
 20
-255.758845429
 30
0.0
  0
VERTEX
  8
0
 10
286.339650802
 20
-251.155936633
 30
0.0
  0
VERTEX
  8
0
 10
283.736483231
 20
-246.90795324
 30
0.0
  0
VERTEX
  8
0
 10
280.500833962
 20
-243.119494697
 30
0.0
  0
VERTEX
  8
0
 10
276.712375419
 20
-239.883845429
 30
0.0
  0
VERTEX
  8
0
 10
272.464392026
 20
-237.280677857
 30
0.0
  0
VERTEX
  8
0
 10
267.861483231
 20
-235.374090608
 30
0.0
  0
VERTEX
  8
0
 10
263.016987924
 20
-234.211030186
 30
0.0
  0
VERTEX
  8
0
 10
258.050193659
 20
-233.820135
 30
0.0
  0
VERTEX
  8
0
 10
253.083399394
 20
-234.211030186
 30
0.0
  0
VERTEX
  8
0
 10
248.238904088
 20
-235.374090608
 30
0.0
  0
VERTEX
  8
0
 10
243.635995292
 20
-237.280677857
 30
0.0
  0
VERTEX
  8
0
 10
239.388011899
 20
-239.883845429
 30
0.0
  0
VERTEX
  8
0
 10
235.599553357
 20
-243.119494697
 30
0.0
  0
VERTEX
  8
0
 10
232.363904088
 20
-246.90795324
 30
0.0
  0
VERTEX
  8
0
 10
229.760736516
 20
-251.155936633
 30
0.0
  0
VERTEX
  8
0
 10
227.854149267
 20
-255.758845429
 30
0.0
  0
VERTEX
  8
0
 10
226.691088845
 20
-260.603340735
 30
0.0
  0
VERTEX
  8
0
 10
226.300193659
 20
-265.570135
 30
0.0
  0
VERTEX
  8
0
 10
226.691088845
 20
-270.536929265
 30
0.0
  0
VERTEX
  8
0
 10
227.854149267
 20
-275.381424571
 30
0.0
  0
VERTEX
  8
0
 10
229.760736516
 20
-279.984333367
 30
0.0
  0
VERTEX
  8
0
 10
232.363904088
 20
-284.23231676
 30
0.0
  0
VERTEX
  8
0
 10
235.599553357
 20
-288.020775303
 30
0.0
  0
VERTEX
  8
0
 10
239.388011899
 20
-291.256424571
 30
0.0
  0
VERTEX
  8
0
 10
243.635995292
 20
-293.859592143
 30
0.0
  0
VERTEX
  8
0
 10
248.238904088
 20
-295.766179392
 30
0.0
  0
VERTEX
  8
0
 10
253.083399394
 20
-296.929239814
 30
0.0
  0
VERTEX
  8
0
 10
258.050193659
 20
-297.320135
 30
0.0
  0
SEQEND
  8
0
  0
POLYLINE
  8
0
 62
0
 70
0
 66
1
 10
0.0
 20
0.0
 30
0.0
  0
VERTEX
  8
0
 10
258.050193659
 20
236.079865
 30
0.0
  0
VERTEX
  8
0
 10
263.016987924
 20
236.470760186
 30
0.0
  0
VERTEX
  8
0
 10
267.861483231
 20
237.633820608
 30
0.0
  0
VERTEX
  8
0
 10
272.464392026
 20
239.540407857
 30
0.0
  0
VERTEX
  8
0
 10
276.712375419
 20
242.143575429
 30
0.0
  0
VERTEX
  8
0
 10
280.500833962
 20
245.379224697
 30
0.0
  0
VERTEX
  8
0
 10
283.736483231
 20
249.16768324
 30
0.0
  0
VERTEX
  8
0
 10
286.339650802
 20
253.415666633
 30
0.0
  0
VERTEX
  8
0
 10
288.246238052
 20
258.018575429
 30
0.0
  0
VERTEX
  8
0
 10
289.409298473
 20
262.863070735
 30
0.0
  0
VERTEX
  8
0
 10
289.800193659
 20
267.829865
 30
0.0
  0
VERTEX
  8
0
 10
289.409298473
 20
272.796659265
 30
0.0
  0
VERTEX
  8
0
 10
288.246238052
 20
277.641154571
 30
0.0
  0
VERTEX
  8
0
 10
286.339650802
 20
282.244063367
 30
0.0
  0
VERTEX
  8
0
 10
283.736483231
 20
286.49204676
 30
0.0
  0
VERTEX
  8
0
 10
280.500833962
 20
290.280505303
 30
0.0
  0
VERTEX
  8
0
 10
276.712375419
 20
293.516154571
 30
0.0
  0
VERTEX
  8
0
 10
272.464392026
 20
296.119322143
 30
0.0
  0
VERTEX
  8
0
 10
267.861483231
 20
298.025909392
 30
0.0
  0
VERTEX
  8
0
 10
263.016987924
 20
299.188969814
 30
0.0
  0
VERTEX
  8
0
 10
258.050193659
 20
299.579865
 30
0.0
  0
VERTEX
  8
0
 10
253.083399394
 20
299.188969814
 30
0.0
  0
VERTEX
  8
0
 10
248.238904088
 20
298.025909392
 30
0.0
  0
VERTEX
  8
0
 10
243.635995292
 20
296.119322143
 30
0.0
  0
VERTEX
  8
0
 10
239.388011899
 20
293.516154571
 30
0.0
  0
VERTEX
  8
0
 10
235.599553357
 20
290.280505303
 30
0.0
  0
VERTEX
  8
0
 10
232.363904088
 20
286.49204676
 30
0.0
  0
VERTEX
  8
0
 10
229.760736516
 20
282.244063367
 30
0.0
  0
VERTEX
  8
0
 10
227.854149267
 20
277.641154571
 30
0.0
  0
VERTEX
  8
0
 10
226.691088845
 20
272.796659265
 30
0.0
  0
VERTEX
  8
0
 10
226.300193659
 20
267.829865
 30
0.0
  0
VERTEX
  8
0
 10
226.691088845
 20
262.863070735
 30
0.0
  0
VERTEX
  8
0
 10
227.854149267
 20
258.018575429
 30
0.0
  0
VERTEX
  8
0
 10
229.760736516
 20
253.415666633
 30
0.0
  0
VERTEX
  8
0
 10
232.363904088
 20
249.16768324
 30
0.0
  0
VERTEX
  8
0
 10
235.599553357
 20
245.379224697
 30
0.0
  0
VERTEX
  8
0
 10
239.388011899
 20
242.143575429
 30
0.0
  0
VERTEX
  8
0
 10
243.635995292
 20
239.540407857
 30
0.0
  0
VERTEX
  8
0
 10
248.238904088
 20
237.633820608
 30
0.0
  0
VERTEX
  8
0
 10
253.083399394
 20
236.470760186
 30
0.0
  0
VERTEX
  8
0
 10
258.050193659
 20
236.079865
 30
0.0
  0
SEQEND
  8
0
  0
ENDBLK
  0
ENDSEC
  0
SECTION
  2
ENTITIES
  0
INSERT
  2
CHAMFER
  8
0
 62
0
 10
0.0
 20
0.0
 30
0.0
  0
ENDSEC
  0
EOF
